<svg width="24" height="39" viewBox="0 0 24 39" fill="none" xmlns="http://www.w3.org/2000/svg">
<path d="M22.9791 20.9917L5.97405 38.0726C5.15391 38.8964 3.82426 38.8964 3.00421 38.0726L1.02084 36.0804C0.202107 35.258 0.200532 33.9251 1.01734 33.1008L14.4942 19.5001L1.01734 5.89946C0.200532 5.07513 0.202107 3.74227 1.02084 2.91988L3.00421 0.927664C3.82435 0.103865 5.154 0.103865 5.97405 0.927664L22.9791 18.0086C23.7992 18.8323 23.7992 20.1679 22.9791 20.9917Z" fill="white"/>
</svg>
