<svg width="13" height="22" viewBox="0 0 13 22" fill="none" xmlns="http://www.w3.org/2000/svg">
<path d="M12.3817 11.7955L3.27183 20.9054C2.83247 21.3447 2.12016 21.3447 1.68084 20.9054L0.618327 19.8428C0.179718 19.4042 0.178874 18.6934 0.616452 18.2537L7.83619 11L0.616452 3.74634C0.178874 3.3067 0.179718 2.59584 0.618327 2.15723L1.68084 1.09472C2.1202 0.655358 2.83251 0.655358 3.27183 1.09472L12.3817 10.2045C12.821 10.6439 12.821 11.3562 12.3817 11.7955Z" fill="#4E4E4E"/>
</svg>
